/* XPM */
static const char*qirc32x32[]={
"32 31 193 2",
"a5 c #2ea214",
".z c #5a7694",
".n c #32b614",
".i c #36de14",
".o c #36ca14",
"a2 c #82462c",
"#1 c #c6c254",
"#J c #7e923c",
"a0 c #92462c",
"#h c #e66244",
".4 c #829adc",
"#G c #ea6244",
"#H c #9a462c",
".E c #6a86a4",
"aT c #8e923c",
"ad c #868644",
"#m c #8aa2e4",
"#Q c #f66a4c",
"ap c #969a44",
".U c #fa6a4c",
"a9 c #0a1604",
"#r c #fe6a4c",
"#p c #92aaec",
"aI c #66321c",
"an c #7a82b4",
"#9 c #12320c",
"az c #728abc",
".y c #96b2f4",
".e c #16460c",
"b. c #16320c",
"#l c #5e6a2c",
".D c #9ab2f4",
"aU c #a6a24c",
".P c #566284",
"#K c #f2ee6c",
".l c #1e5a0c",
"#n c #5a7684",
"ae c #665a7c",
"aJ c #1e6214",
".X c #ce563c",
".F c #267614",
".f c #2a9e14",
"ac c #2a8a14",
"#5 c #2e9e14",
"a7 c #2e8a14",
"ax c #2e7614",
"#e c #32b214",
"ao c #22421c",
".j c #36da14",
".3 c #b2b25c",
"#F c #82562c",
".0 c #c2be54",
"aM c #de5e44",
".T c #e25e44",
"#d c #4a6e6c",
"#M c #869ee4",
"a4 c #9e5e34",
".9 c #ee664c",
"aH c #923e3c",
"Qt c None",
"aY c #8eaa44",
"#t c #f2664c",
".7 c #325a34",
"aW c #9aaa44",
"au c #8ea6ec",
"ag c #0a1204",
"a3 c #ae4a34",
"#W c #e6e264",
"#4 c #b24a34",
".V c #fe6e54",
".5 c #96aef4",
".C c #4e5e84",
"#V c #9e4e4c",
"al c #16420c",
"#R c #6e3624",
"#B c #865264",
"#X c #969a5c",
".u c #52668c",
"aP c #c6523c",
".I c #227214",
"aB c #268614",
".L c #6a8234",
".Y c #823624",
".k c #2eae14",
".B c #32c214",
"#Z c #2e4a14",
".N c #769634",
"#v c #36d614",
"#c c #6a7a8c",
".6 c #328614",
"#z c #36c214",
"aj c #72668c",
"#g c #da5a44",
"#6 c #36ca1c",
".G c #427214",
".r c #2e8224",
"#. c #963e2c",
"aS c #3e661c",
"#S c #42b61c",
"ai c #428e1c",
"#u c #9a3e2c",
"ay c #328a2c",
"aa c #964634",
"af c #ea624c",
"#s c #ee624c",
"aX c #92a644",
"aL c #4e9624",
"aO c #a64634",
"#8 c #86769c",
"at c #4e7274",
".J c #0a0e04",
"#a c #e2de64",
"ak c #ae4634",
".K c #465634",
".d c #0e2a0c",
".Q c #6e82bc",
"aQ c #122a0c",
"#y c #727e6c",
".c c #163e0c",
"#2 c #767e6c",
"aA c #1a520c",
"#U c #aeae4c",
"#O c #768ac4",
"a6 c #1a3214",
"a# c #7a8ac4",
"aF c #c28294",
"#w c #268214",
"#0 c #2a9614",
"#3 c #62628c",
"ab c #2eaa14",
".O c #7e92cc",
".t c #5a6a94",
"#7 c #bab654",
".H c #2e6e14",
".p c #32be14",
".g c #36d214",
"#I c #325a14",
"ar c #36c61c",
"aN c #923a2c",
"#T c #3a761c",
"aZ c #429e1c",
"aw c #d6d25c",
"aC c #466a24",
".8 c #7e464c",
"aE c #a66e84",
".m c #0e1e04",
"#o c #366e3c",
"#P c #8a4e54",
".R c #625a74",
".a c #163a0c",
"#q c #964e54",
"a8 c #1a4e0c",
"aK c #aaaa4c",
"am c #5a7e84",
".M c #6a9a2c",
".1 c #fef66c",
"av c #768ecc",
"ah c #267e14",
"#j c #2a9214",
"#D c #2ea614",
"#f c #7e8ecc",
".A c #32ba14",
".h c #36e214",
"#k c #36ce14",
"as c #32ae1c",
"#C c #3e6a14",
"aG c #ae666c",
"#N c #6276a4",
"#i c #4a1a14",
"#x c #d2ce5c",
".w c #46626c",
"aR c #464a1c",
".x c #8aa6e4",
"#L c #6a7eac",
".s c #465674",
".S c #aa5234",
".# c #0a1a04",
".W c #fe6e4c",
"aD c #9e9e44",
"aq c #a29e44",
".Z c #160604",
"aV c #a2a64c",
"a1 c #16360c",
".b c #1a4a0c",
"a. c #7e8a6c",
"#b c #faf26c",
".v c #3e664c",
".2 c #fef26c",
"#A c #2e9a0c",
"## c #226614",
"#Y c #b6564c",
".q c #267a14",
"#E c #2a8e14",
"QtQtQtQtQtQtQtQtQtQtQtQtQt.#.a.b.c.dQtQtQtQtQtQtQtQtQtQtQtQtQtQt",
"QtQtQtQtQtQtQtQtQtQt.e.f.g.h.h.h.i.i.j.k.lQtQtQtQtQtQtQtQtQtQtQt",
"QtQtQtQtQtQtQtQt.m.n.i.h.i.i.i.j.o.i.h.h.i.p.eQtQtQtQtQtQtQtQtQt",
"QtQtQtQtQtQtQt.q.i.h.i.i.i.j.r.s.t.u.v.f.i.i.h.fQtQtQtQtQtQtQtQt",
"QtQtQtQtQtQt.k.i.i.i.i.h.k.w.x.y.y.y.y.z.h.i.h.i.AQtQtQtQtQtQtQt",
"QtQtQtQtQt.B.h.i.i.h.h.k.C.y.D.y.y.y.y.E.g.f.F.G.H.I.JQtQtQtQtQt",
"QtQtQt.K.L.M.M.M.N.N.L.s.y.y.O.P.Q.D.y.R.S.T.U.V.W.X.Y.ZQtQtQtQt",
"QtQtQt.0.1.1.2.1.2.2.3.4.5.C.6.j.7.5.5.8.V.V.V.W.V.V.V.9#.QtQtQt",
"QtQt.####a.1.1.1.1#b#c.D#d#e.h.g.u.y#f#g.W.V.V.W.V.W.V.V.W#h#iQt",
"QtQt#j#k#l.1.2.1.1.3#m#n.A.i.i#o#p#p#q.V#r.T.T#s.W.V.V.V#t#u#iQt",
"QtQt#v.i#w#x.1.1.2#y.x#o#z#A.v.x#p#B#r.S#C#D.k#E.G#F#G#H#I.bQtQt",
"Qt.e.i.i.h#J.2.2#K#L.5#M#N#O.y#m#P#Q#R.A.i.i.h.h.i.i#S.j.i.fQtQt",
"Qt.I.h.i.i#T.1.2#U#m.D.D.y.y.O#V.V#.#D.i.h.i.i.h.h.h.i.h.i#kQtQt",
"Qt#E.i.i.h#w#W.1#X.D.D.y.D#m#Y.V#t#Z.h.h.i.i.i.i.i.i.i.i.i.i.#Qt",
"Qt.k.h.i.i#0#1.2#2.y.D.5.D#3#r.V#4#5.i.i.h.h.i.i.h.h.i.i.i.i.dQt",
"Qt#6.i.h.i#D#7.1#y.D.y.D.D#8.V.V#u.g.i.h.i.i.h.h.i.i.h.h.i.i#9Qt",
"Qt.B.i.h.h.f#1.1a..5.D.y.Da##g.Vaa.i.i.h.h.i.i.h.h.i.i.h.h.h#9Qt",
"Qtab.i.i.iac#W.2ad.5.y.D.y.Daeaf#u.p.h.i.i.h.h.i.i.h.h.i.i.iagQt",
"Qtah.h.i.iai.1.2#x.Q.5.D.5.5.Dajak.F.i.i.i.i.i.i.i.i.h.h.h.BQtQt",
"Qtal.i.h.i.M.2.1.1.Kam.4.D.D.y.yanao.i.h.i.i.h.h.i.i.i.i.i#wQtQt",
"QtQt.p.h.iap.2.2.1aqarasatau.y.y.yav##.i.h.i.i.h.h.i.i.i.h.dQtQt",
"QtQt.l.i#0aw.1.1.1#Kax.i.jayaz.D.D.yavaA#k.i.i.i.i.h.h.iaBQtQtQt",
"QtQtQt.kaC.2.2.2.1.1aD#k.i.ias.RaEaFaGaHaIaJ.k.B.p.faB#v.#QtQtQt",
"QtQtQtQtaK.1.1.1.2.2#baL.i.i.i.6aM.U#Q.V.V.X#uaNaHaOaPaQQtQtQtQt",
"QtQtQtaR#b.1.2.1.1.1.2.0#k.i.h.iaS.X#r.V.V.W.W.W.W.W#r.T.ZQtQtQt",
"QtQtQtaTaKaqaUaVaDaWaXaYaZ.h.i.i.h.6a0.9.W.V.V.V.V.W.V.VaP.ZQtQt",
"QtQtQtQtQtQta1.g.i.i.i.i.i.i.i.i.h.i#k.Ha2a3.T#Q.V#G#4a4#CQtQtQt",
"QtQtQtQtQtQtQtQta5.i.i.i.i.h.h.i.i.i.i.h.i.na6a7a7#0.p.kQtQtQtQt",
"QtQtQtQtQtQtQtQtQt#9#0.i.i.i.h.i.h.h.i.gaBQtQta8.j.i.Aa9QtQtQtQt",
"QtQtQtQtQtQtQtQtQtQtQtQtb.al.laJaA.b.dQtQtQtQtQta8.n.JQtQtQtQtQt",
"QtQtQtQtQtQtQtQtQtQtQtQtQtQtQtQtQtQtQtQtQtQtQtQtQtQtQtQtQtQtQtQt"};
